用户名,用户头像,IP地址,评论时间,评论内容,点赞数量,回复数量
月光下摆烂,"https://tvax2.sinaimg.cn/crop.0.0.640.640.50/007WrRDely8hg3iyg5w7yj30hs0hs74q.jpg?KID=imgbed,tva&Expires=1701005074&ssig=hVzTWJ6kgC",北京,Sun Nov 26 17:32:32  2023,[doge],5,0
断崖百合_荷荷,"https://tvax1.sinaimg.cn/crop.0.0.1080.1080.50/008nCEBkly8gu13pw4mhcj60u00u0god02.jpg?KID=imgbed,tva&Expires=1701005074&ssig=h6n4OndVDe",其他,Sun Nov 26 17:50:11  2023,人家还没说完[doge],1,0
钓一枝叫旺达的鱼,"https://tvax1.sinaimg.cn/crop.0.0.512.512.50/0074i9WKly8hb66ecmftpj30e80e8aa3.jpg?KID=imgbed,tva&Expires=1701005074&ssig=fdgArBL910",其他,Sun Nov 26 17:47:14  2023,呵呵,0,0
晶莹555555,"https://tvax2.sinaimg.cn/crop.0.0.1080.1080.50/006EhUboly8hikvzmu2rdj30u00u0gnx.jpg?KID=imgbed,tva&Expires=1701005074&ssig=A8EuBwieDr",福建 龙岩,Sun Nov 26 18:20:33  2023,这么牛逼,0,0
JIYEON2___1分1秒,"https://tvax4.sinaimg.cn/crop.0.0.996.996.50/907254cdly8grfbkd1t17j20ro0rojtd.jpg?KID=imgbed,tva&Expires=1701005074&ssig=XgiVfEImBr",山西 太原,Sun Nov 26 18:16:51  2023,这种推销方式真可怕,0,0
银河的尾巴,"https://tva3.sinaimg.cn/crop.0.0.1002.1002.50/5f02305djw8f47yo5ec98j20ru0rumz6.jpg?KID=imgbed,tva&Expires=1701005074&ssig=l%2BPyPLQ2J8",上海 嘉定区,Sun Nov 26 18:16:00  2023,联通的选择，无奈了,1,0
船长飞扬,"https://tvax1.sinaimg.cn/crop.0.0.816.816.50/006fhL3Tly1hhany8s7krj30mo0modib.jpg?KID=imgbed,tva&Expires=1701005074&ssig=6ffKdo0Nui",新疆,Sun Nov 26 18:05:58  2023,这个就非常的过分了,0,0
欧气Run,"https://tvax3.sinaimg.cn/crop.0.0.750.750.50/0068JPO6ly8h6s6o4qreuj30ku0ku3yu.jpg?KID=imgbed,tva&Expires=1701005074&ssig=dFxJ5yjZa2",广东,Sun Nov 26 17:58:29  2023,真是什么人都有,0,0
欧气Run,"https://tvax3.sinaimg.cn/crop.0.0.750.750.50/0068JPO6ly8h6s6o4qreuj30ku0ku3yu.jpg?KID=imgbed,tva&Expires=1701005074&ssig=dFxJ5yjZa2",广东,Sun Nov 26 17:58:13  2023,还有这种服务态度的,0,0
小Ming_QAQ,"https://tvax1.sinaimg.cn/crop.0.0.1002.1002.50/7f8c6d80ly8gi8qn87hbkj20ru0ruq4w.jpg?KID=imgbed,tva&Expires=1701005074&ssig=TLJA1Vpbxr",其他,Sun Nov 26 17:56:02  2023,这种真的太夸张了吧[笑cry],0,0
Shiny_Hwang,"https://tvax2.sinaimg.cn/crop.0.0.803.803.50/6b5ef7aely8fs3mi4yr5vj20mb0mbmzy.jpg?KID=imgbed,tva&Expires=1701005074&ssig=PypM%2FOetbh",广东,Sun Nov 26 17:52:21  2023,所以我也不用联通,0,0
秋秋的小花园,"https://tvax1.sinaimg.cn/crop.0.0.1080.1080.50/7f0d492cly8hhfpviri25j20u00u00v9.jpg?KID=imgbed,tva&Expires=1701005074&ssig=lS0BqlFhPz",福建,Sun Nov 26 17:51:01  2023,看来是有点夸张,0,0
数码界大佬,"https://tvax4.sinaimg.cn/crop.0.0.996.996.50/98bf6f26ly8gfn3z6kf40j20ro0rogm4.jpg?KID=imgbed,tva&Expires=1701005074&ssig=DHqNLlTXQc",陕西 宝鸡,Sun Nov 26 17:49:57  2023,我都怀疑是不是联通的[嘻嘻],0,0
Shiny_Hwang,"https://tvax2.sinaimg.cn/crop.0.0.803.803.50/6b5ef7aely8fs3mi4yr5vj20mb0mbmzy.jpg?KID=imgbed,tva&Expires=1701005074&ssig=PypM%2FOetbh",广东,Sun Nov 26 17:45:55  2023,可见职业素养水平低,0,0
彗星落兜里了,"https://tvax1.sinaimg.cn/crop.0.0.996.996.50/006O8tG9ly8glqtycf8vuj30ro0ro76e.jpg?KID=imgbed,tva&Expires=1701005074&ssig=Wm5iRPq%2F%2FX",云南,Sun Nov 26 17:34:52  2023,严肃处理吧什么人都有,1,1
婷儿是最棒的,"https://tvax2.sinaimg.cn/crop.0.0.1080.1080.50/667d495dly8h7fl39zbzkj20u00u1abc.jpg?KID=imgbed,tva&Expires=1701005074&ssig=8A8neig5F3",河南,Sun Nov 26 17:34:46  2023,丧心病狂了吧,0,0
彗星落兜里了,"https://tvax1.sinaimg.cn/crop.0.0.996.996.50/006O8tG9ly8glqtycf8vuj30ro0ro76e.jpg?KID=imgbed,tva&Expires=1701005074&ssig=Wm5iRPq%2F%2FX",云南,Sun Nov 26 17:34:20  2023,凭什么不要啊，凭什么要你的卡[笑cry],1,0
